<?xml version="1.0" encoding="UTF-8" standalone="no"?>
<svg width="476px" height="476px" viewBox="0 0 476 476" version="1.1" xmlns="http://www.w3.org/2000/svg" xmlns:xlink="http://www.w3.org/1999/xlink" xmlns:sketch="http://www.bohemiancoding.com/sketch/ns">
    <!-- Generator: Sketch 3.4.3 (16044) - http://www.bohemiancoding.com/sketch -->
    <title>google</title>
    <desc>Created with Sketch.</desc>
    <defs></defs>
    <g id="Page-1" stroke="none" stroke-width="1" fill="none" fill-rule="evenodd" sketch:type="MSPage">
        <g id="google" sketch:type="MSLayerGroup" fill="#fff">
            <path d="M273.372,302.498 C268.331,295.736 262.764,289.453 256.672,283.656 C250.581,277.852 244.489,272.568 238.401,267.811 C232.309,263.054 226.742,258.482 221.699,254.102 C216.657,249.728 212.564,245.157 209.424,240.4 C206.284,235.643 204.713,230.79 204.713,225.842 C204.713,218.987 206.903,212.564 211.28,206.568 C215.657,200.572 220.987,194.769 227.266,189.151 C233.546,183.534 239.825,177.398 246.11,170.736 C252.386,164.071 257.714,155.271 262.095,144.324 C266.468,133.38 268.658,120.866 268.658,106.782 C268.658,90.032 264.945,73.947 257.522,58.532 C250.099,43.114 239.632,31.12 226.117,22.556 L264.657,22.556 L303.2,0 L178.441,0 C160.742,0 142.943,1.906 125.057,5.72 C98.604,11.62 76.334,25.088 58.251,46.117 C40.171,67.15 31.129,90.99 31.129,117.637 C31.129,145.808 41.267,169.22 61.535,187.87 C81.804,206.519 106.12,215.848 134.48,215.848 C140.19,215.848 146.851,215.37 154.465,214.421 C154.084,215.942 153.422,217.988 152.468,220.557 C151.514,223.126 150.753,225.177 150.182,226.697 C149.612,228.218 149.135,230.072 148.757,232.263 C148.375,234.453 148.186,236.691 148.186,238.973 C148.186,251.536 154.272,265.717 166.457,281.514 C151.992,281.901 137.72,283.184 123.632,285.374 C109.548,287.564 94.799,290.99 79.38,295.654 C63.963,300.315 50.163,307.074 37.984,315.924 C25.802,324.778 16.667,335.29 10.576,347.473 C3.533,361.559 0.01,374.405 0.01,386.017 C0.01,398.768 2.867,410.331 8.575,420.707 C14.283,431.076 21.61,439.549 30.557,446.113 C39.502,452.683 49.83,458.196 61.535,462.675 C73.239,467.145 84.85,470.334 96.364,472.237 C107.88,474.14 119.252,475.091 130.483,475.091 C181.49,475.091 221.464,462.627 250.392,437.694 C277.04,414.471 290.363,387.632 290.363,357.177 C290.363,346.322 288.793,336.193 285.651,326.768 C282.51,317.337 278.42,309.254 273.372,302.498 L273.372,302.498 Z M163.311,198.722 C153.604,198.722 144.374,196.247 135.617,191.296 C126.86,186.346 119.437,179.922 113.347,172.023 C107.259,164.125 101.929,155.227 97.36,145.328 C92.793,135.432 89.416,125.536 87.225,115.636 C85.035,105.741 83.941,96.318 83.941,87.371 C83.941,69.1 88.795,53.397 98.503,40.263 C108.208,27.129 121.914,20.562 139.615,20.562 C152.178,20.562 163.55,24.461 173.733,32.266 C183.916,40.07 191.91,49.967 197.717,61.958 C203.519,73.949 207.994,86.365 211.134,99.215 C214.274,112.062 215.845,124.198 215.845,135.618 C215.845,154.654 211.706,169.935 203.426,181.451 C195.144,192.964 181.775,198.722 163.311,198.722 L163.311,198.722 Z M242.251,413.123 C237.021,422.072 229.932,429.063 220.984,434.104 C212.038,439.152 202.475,442.862 192.291,445.244 C182.108,447.629 171.402,448.816 160.171,448.816 C147.989,448.816 135.901,447.385 123.913,444.532 C111.923,441.681 100.454,437.345 89.51,431.541 C78.566,425.741 69.715,417.743 62.959,407.559 C56.202,397.375 52.824,385.815 52.824,372.869 C52.824,361.45 55.392,351.268 60.532,342.319 C65.674,333.374 72.241,326.235 80.234,320.911 C88.228,315.579 97.553,311.198 108.213,307.78 C118.873,304.347 129.15,301.972 139.046,300.641 C148.941,299.306 159.031,298.646 169.308,298.646 C175.591,298.646 180.351,298.837 183.585,299.213 C184.728,299.98 187.628,301.972 192.293,305.209 C196.958,308.446 200.097,310.637 201.716,311.779 C203.331,312.916 206.283,315.105 210.566,318.342 C214.847,321.579 217.893,324.003 219.701,325.621 C221.504,327.239 224.122,329.666 227.55,332.9 C230.974,336.137 233.498,338.943 235.116,341.322 C236.731,343.7 238.732,346.602 241.112,350.024 C243.492,353.457 245.155,356.739 246.11,359.879 C247.058,363.021 247.964,366.446 248.817,370.156 C249.672,373.876 250.1,377.725 250.1,381.726 C250.105,393.713 247.487,404.182 242.251,413.123 L242.251,413.123 Z" id="Shape" sketch:type="MSShapeGroup"></path>
            <path d="M401.998,73.089 L401.998,0 L365.449,0 L365.449,73.089 L292.358,73.089 L292.358,109.636 L365.449,109.636 L365.449,182.725 L401.998,182.725 L401.998,109.636 L475.081,109.636 L475.081,73.089 L401.998,73.089 Z" id="Shape" sketch:type="MSShapeGroup"></path>
        </g>
    </g>
</svg>
